{
  "project_info": {
    "project_number": "643669454072",
    "firebase_url": "https://mihhos-78b61.firebaseio.com",
    "project_id": "mihhos-78b61",
    "storage_bucket": "mihhos-78b61.appspot.com"
  },
  "client": [
    {
      "client_info": {
        "mobilesdk_app_id": "1:643669454072:android:5be2c4430bfa2998",
        "android_client_info": {
          "package_name": "com.example.mihha.firebase"
        }
      },
      "oauth_client": [
        {
          "client_id": "643669454072-cal3f88b2gl4j6hhr281lr7nm3ke21fb.apps.googleusercontent.com",
          "client_type": 1,
          "android_info": {
            "package_name": "com.example.mihha.firebase",
            "certificate_hash": "3d7529a3e65600c463bc4a0f4e70a6dd4037ee26"
          }
        },
        {
          "client_id": "643669454072-8be0jhbt3ufeq7gao501aqg3kk9efv2m.apps.googleusercontent.com",
          "client_type": 3
        }
      ],
      "api_key": [
        {
          "current_key": "AIzaSyAiPhc0Z7mjewsI9cLIlE0czUNqrEIr0Y0"
        }
      ],
      "services": {
        "analytics_service": {
          "status": 1
        },
        "appinvite_service": {
          "status": 2,
          "other_platform_oauth_client": [
            {
              "client_id": "643669454072-8be0jhbt3ufeq7gao501aqg3kk9efv2m.apps.googleusercontent.com",
              "client_type": 3
            }
          ]
        },
        "ads_service": {
          "status": 2
        }
      }
    },
    {
      "client_info": {
        "mobilesdk_app_id": "1:643669454072:android:95385c572fc02560",
        "android_client_info": {
          "package_name": "com.example.mihha.messenger"
        }
      },
      "oauth_client": [
        {
          "client_id": "643669454072-rum8rbddf37lsnn71vco99k7kvbdn6fi.apps.googleusercontent.com",
          "client_type": 1,
          "android_info": {
            "package_name": "com.example.mihha.messenger",
            "certificate_hash": "5c831dce88743ececcf76a4b8e53d2519998d78d"
          }
        },
        {
          "client_id": "643669454072-8be0jhbt3ufeq7gao501aqg3kk9efv2m.apps.googleusercontent.com",
          "client_type": 3
        }
      ],
      "api_key": [
        {
          "current_key": "AIzaSyAiPhc0Z7mjewsI9cLIlE0czUNqrEIr0Y0"
        }
      ],
      "services": {
        "analytics_service": {
          "status": 1
        },
        "appinvite_service": {
          "status": 2,
          "other_platform_oauth_client": [
            {
              "client_id": "643669454072-8be0jhbt3ufeq7gao501aqg3kk9efv2m.apps.googleusercontent.com",
              "client_type": 3
            }
          ]
        },
        "ads_service": {
          "status": 2
        }
      }
    }
  ],
  "configuration_version": "1"
}